{
	"schemaVersion": 1,
	"id": "structuraplus",
	"version": "${version}",
	"name": "StructuraPlus",
	"description": "This is an example description! Tell everyone what your mod is about!",
	"authors": [
		"Me!"
	],
	"contact": {
		"homepage": "https://fabricmc.net/",
		"sources": "https://gitlab.com/vlad_croitoru_/structuraplus"
	},
	"license": "GPL-3",
	"icon": "assets/structuraplus/icon.png",
	"environment": "*",
	"entrypoints": {
		"main": [
			"net.coco.structuraplus.StructuraPlus"
		],
		"client": [
			"net.coco.structuraplus.StructuraPlusClient"
		],
		"fabric-datagen": [
			"net.coco.structuraplus.StructuraPlusDataGenerator"
		]
	},
	"mixins": [
		"structuraplus.mixins.json"
	],
	"depends": {
		"fabricloader": ">=0.15.6",
		"minecraft": "~1.18.1",
		"java": ">=17",
		"fabric": "*"
	},
	"suggests": {
		"another-mod": "*"
	}
}