{
  "type": "minecraft:blasting",
  "group": "carbon_ingot",
  "ingredient": {
    "item": "structuraplus:carbon_ore"
  },
  "result": "structuraplus:carbon_ingot",
  "experience": 0.7,
  "cookingtime": 100
}