{
  "type": "minecraft:crafting_shaped",
  "group": "carbon_ingot",
  "pattern": [
    "###",
    "###",
    "###"
  ],
  "key": {
    "#": {
      "item": "structuraplus:pure_iron_nugget"
    }
  },
  "result": {
    "item": "structuraplus:pure_iron_ingot"
  }
}