{
  "type": "minecraft:crafting_shapeless",
  "ingredients": [
    {
      "item": "structuraplus:pure_iron_ingot"
    }
  ],
  "result": {
    "item": "structuraplus:pure_iron_nugget",
    "count": 9
  }
}