{
  "type": "minecraft:crafting_shaped",
  "pattern": [
    "XXX",
    "X X"
  ],
  "key": {
    "X": {
      "item": "structuraplus:steel_plate"
    }
  },
  "result": {
    "item": "structuraplus:steel_helmet"
  }
}