{
  "type": "minecraft:crafting_shaped",
  "pattern": [
    "X",
    "#",
    "#"
  ],
  "key": {
    "#": {
      "item": "minecraft:stick"
    },
    "X": {
      "item": "structuraplus:steel_ingot"
    }
  },
  "result": {
    "item": "structuraplus:steel_shovel"
  }
}